	date	rating	tconst	text	title	username
0	15 May 2014	9	tt3530232	"No great offense meant to U.S TV, but most of its shows with hosts trying to make some fun of the recent affairs, politicians and all that jazz are usually crappy and saved by the ""bring a funny and/or weird celebrity"" bell. Of course, ""The Colbert Report"" and a few bits of the ""Daily Show"" are exceptions, but overall one must admit that even these don't really dwell too long in deep waters (meaning grave issues of major concern) like ""Last Week Tonight"" does. A couple of examples of serious satire from the first episodes are the death penalty, the hypocritical stance of politicians towards people like the Sultan of Brunei or even the fun'n'serious interview of the ex-chief of the NSA. The fact alone that such significant and highly debatable subjects are discussed is a huge win for the show. The end result airing on HBO, comes as no surprise to me. Their only commitment I have seen so far show-wise, is quality and creativity, two traits this show seems to possess.I am taken in by the first three episodes and honestly believe that this show has the potential to stimulate the brain and instigate belly-aching laughs at the same time. Hopefully, the creators will not take steps back, when possible pressure to ""lighten"" their material may arise - if and when a lot of people start watching the show. {Quick note to those who may feel offended by the approach John Oliver has on the ignorance of some people from the States, when it comes to the rest of the world: If you know your way around a world map and have an idea of what is happening elsewhere in this vast place called Earth, lay back and enjoy the sarcasm. If you can't do that, take the bitter pill.}"	" Takes a Brit to bring US TV some wit
"	Flattered_Flatulated
1	4 June 2014	10	tt3530232	Loved John Oliver on Community and love him on this show. He's intelligent and sarcastic, and somehow manages to make topics that are completely horrific (e.g., the U.S. government's actions) not thoroughly depressing. I love how he will make fun of ANY political party; so many shows just spend their time panning Republicans, losing half the country as a result. Oliver must be a libertarian, because he very fairly simply makes fun of anyone who is doing something stupid, regardless of political affiliation. This is something that cannot be said of the unbearable John Stewart, or SNL, for example, but can be said of the awesome Lewis Black as well.I also like his way of poking fun at the U.S. - it's not condescending or rude, it's just good humored teasing. The segment in which he shows the globe with countries marked as Not the U.S. is priceless.Oliver's topics are well chosen, and his take on them is unique. I greatly hope HBO will continue this show as it's the best comedy late night hosted whatever genre you call this currently on TV.	" intelligent, fair, and hilarious
"	blowfly13
2	12 May 2014	10	tt3530232	The insane level of awesome energy John Oliver feeds the viewer can almost be felt! John cuts through the bullshit and touches on real news.There's something about this show that I really genuinely like (and I'm an Australian). Perhaps it's the way most of us would like to already live in a world that does good and makes fun of the stupid and absurd, a bit like Japan perhaps!? Well John Oliver has us covered. Each week a much needed hit of vitality and rejuvenation gets subtly unveiled, then straight up sucker punched to us.The views on issues are sublime, as though John has been on our planet in a future time of peace, then come back to help lube us all through the hole we're already headed for, the peace hole. The energy and views on the show are just like a pick me up to make us go a tiny bit faster.I've just watched episode 3 and that episode alone sums up the type of people, media and just the general positive peaceful way I'd like to see humanity head.10/10 for the sole fact we need to take a look at ourselves in a mirror and thankfully John Oliver's right there, holding up the mirror for us! If you enjoyed Chasers War On Everything, Newsroom, Real Time with Bill Maher or a slew of other 'younger trend news~ish' shows, I'd say this is well worth a look!	" Weekly awesome energy infused injection of peace and discussion!
"	meltinzone
3	30 June 2014	10	tt3530232	"John Oliver is involved in one of the most tasteful shows I have come across which is currently in production. John pulls through with a very unique flavor which leaves the viewer thinking about the show long after it is over. His insightful outlook and commentary on a wide variety of issues is well worth the half hour (plus internet content). In my opinion, John doesn't, or at least attempts not to alienate any viewership the show may achieve but the show is perhaps designed to engage those with an open mind. The humorously named ""Last Week Tonight"" is a lot more than cheap laughs, and then some. In the few episodes that have aired so far, John has proved, at least to me personally, that him and his staff are capable of having very sophisticated opinions on some very deep issues. Honestly, I hope I can hear a lot more from John Oliver and the writers/staff involved!"	" John Oliver is awesome
"	asjad_imran
4	12 June 2014	10	tt3530232	After the season finale of Game of Thrones, Veep, and Silicon Valley (whichever comes last), I was going to cancel my subscription to HBO. Now comes Last Week Tonight with John Oliver, and I'm in a quandary. The history of television and big belly laughs for me is a rare combination. The best sitcoms every have mostly merely amused me. Laughing out loud so hard I can't stop and I have to get online and tell my friends to add this to their watch list is more rare than a lamb chop in Hell's Kitchen. John Oliver made The Daily Show funnier. It's great to see talent like that finally get its due share of hate mail.So now, what to do... cancel HBO and pay $1.99 per episode to watch it on Roku? Yeah, that's how frugal I can be. But can I wait 24 hours for that kind of laughter? Therein lies the quandary.I must take a moment to thank John Oliver and his creative team. Laughter is the best medicine. You're saving the planet--perhaps the multiverse. Boredom is hell. Torture is preferable to boredom. At least torture is something. So thank Fox for 24 hours of torture. But boredom will kill you to death. I didn't know what I was going to do after Dexter ended. Being Human relieves me for a few months, then it's agony. Hannibal comes along and I'm mesmerized for a few months, then I have to wait like a pregnant woman for the next amazing moment. OK, I admit, Wednesday nights in the summer are delicious because of the people who think they can dance. But you, sir, you are the kind of jester who comes along once in the history of an empire, and where would we be without you? Perish the thought.	" More rare than a lamb chop in Hell's Kitchen
"	42carma
5	29 September 2014	10	tt3530232	Well first of all, I have always liked John Oliver. He is yet another talented comedian in a line of many others bred at the talent breeding grounds known as the Daily Show. For people who don't know, Oliver lured away the talented Tim Carvell, former head writer for the daily show, away from Jon Stewart. This was clearly a brilliant move and Stewart was nice enough to part with Carvell. Now that both Oliver and Carvell have a show on HBO with pretty much unlimited creative freedom, they are tackling the most important issues with a fearless tenacity that most comedians/hosts/shows can't afford to have. The reporting is concise and brilliantly edited, the delivery is sharp and witty, and the fact that the show is only 30 minutes long is long enough to hold most people's attention. Good job HBO on creating this gem!	" Beats all the rest by a mile!
"	Flyingblackswan
6	19 February 2018	4	tt3530232	Pepperidge Farms remembers. The first three seasons were very good. A wide variety of topics were covered, and my knowledge of the world expanded. After season 3, this show went down hill for me. Majority of season 4 (2017) was focused on Donald Trump and his Presidency. And on the first episode of season 5 (2018), the main topic yet again is Trump and his Presidency. Nothing interesting is being presented. The show has stagnated.	" Remember when John Oliver didn't talk about Trump?
"	sleeping_tiger
7	20 August 2017	2	tt3530232	"I learned pretty much everything covered on this show in magazine articles ~20 years ago so the weekly feigned ""omg am I blowing your mind?"" is pretty obnoxious. It's also far too partisan and dishonest about who caused which problems (many were actually caused by so-called progressives as well)."	" Pedantic, Annoying
"	samalden-spector
8	15 April 2016	1	tt3530232	His first few shows were funny, but then his topics took a far left turn. I stopped watching him. If he wants to expand his audience beyond liberal children, he should take a more balanced view otherwise he is just a small niche player. i am sure he has a loyal following because he panders to a certain demographic, but if a viewer is looking for someone who is truly funny that possesses an open mind then John Oliver is not a good fit. He is very similar to John Stewart in that regard as they are both extremely politically biased and, as a result, cater to a young audience. I am sure Oliver (just like Stewart) would derby his bias but it is clear to anyone with an analytical mind. I don't have anything further to write but the minimum is 10 lines so I added this last sentence.	" Way too left wing
"	ChicagoMale
9	20 August 2018	6	tt3530232	I used to love this show and John Oliver remains one of the most genuinely funny people on television. But every week now it is the same jokes about Trump, Bannon, Manafort, Ivaka, Comny, Conway, Sanders. It's not that I like them or do not but I watch this show to get away from the usual drivel of politics and instead pay attention to issues that are otherwise out of scope. Predictable and not entertaining these days. John Oliver needs to get back to what he was doing best in seasons 1 and 2.	" A once great show littered with Trump and his administration focus instead of in depth features
"	shreerajshah
10	9 June 2014	9	tt3530232	Everyone probably should care about brutal dictators,net neutrality and,climate change and the scientific method. But we're apathetic(maybe even rightly so) to anything that doesn't entertain us. This show leaves you with no excuse to ignore anything anymore. Even topics as intractable as the death penalty legislation are skillfully delivered to the masses in an appealing way. It takes a stance where overwhelming evidence lies and doesn't pussy out like other news. Last night's castigation of UAE's policy(Qatar) and elaborate 'Fuck you' to Bashar Al-Assad sent me here to mindlessly jab the mouse pointed at the 10 star rating!	" Another Leap for Mankind
"	puneethb-427-921938
11	18 August 2017	1	tt3530232	I used to really like John Oliver, ever since he was on Colbert. However the blatant over the top political bias is now more prevalent at the sacrifice of the comedic value. It has followed the same lines of Colbert which is to propagate dangerous globalist elitism at the expense of common sense or truth. These guys have shown themselves as sold out to the cocktail sipping elite and flushed the working class down the tube as they produce a divided world and spread race baiting lies to poison the minds of the young or vulnerable. Unfortunately he has become nothing more than a deep state establishment media sycophant.	" Once was good, but went so bad
"	peterdaleyonline
12	7 August 2019	10	tt3530232	Humor is the only way to watch the news. Everything is depressing and dark in the world. Violence, hatred, lying, corruption, rape, abuse, war and people who don't deserve to be in control. It's maddening.John Oliver brings a little bit of joy to this depressing news and makes light of the stupidity and ignorance of the crappy world leaders, who commit all of the crimes against humanity.	" A welcomed relief from the crappy news of today
"	digitalbeachbum
13	24 June 2017	2	tt3530232	Gaslighting progressive viewpoints with half-truths that an uneducated viewer will accept as fact? Check. Continuing to spread the hopeless propaganda of the neo-liberal establishment and their corporate owners? Check. John Oliver does absolutely NOTHING to help rectify the problem with Washington today, and that is this: His corporate handlers are the same handlers as those that have bought and own our government. They have a vested interest in making sure that our populace are incapable of critical thinking, lest we become aware of the fact that neither party has the people's interests at heart and are only interested in keeping their donors happy so the gravy train continues to steam forward into complete subordination from the masses.	" Corporate owned dribble
"	plbenson-24793
14	9 November 2017	1	tt3530232	"This show suffers from the same syndrome that affects our increasingly narcissistic society overall, and that is the tendency to believe that your very blatant, extreme political bias is not bias at all, but based in ""objective scientific fact"". As if it's been proved by science that we should all be liberals. Liberals always do this - they believe that all of their super biased political opinions aren't actually political opinions - but fact-based conclusions informed by science. As a result of this, they constantly stick science where it doesn't belong, and start claiming that science can answer questions like ""how should I live my life"" ""should I respect my elders?"" ""should I tell the truth""? etc. More and more, young people are starting to think that spiritual questions like this are the domain of science, and as a result of this, they come to believe that their personal take on such questions isn't a personal value judgment, but a scientific conclusions that only religious conservatives and science-deniers could possibly disagree with. The fake news and spin in this show are so blatant that it's honestly worse than Soviet-Style propaganda - it's Soviet-style propaganda with an arrogant, narcissistic smirk. You know, that smirk that says ""everything I say is based in objective fact, and the only people who could possibly disagree with it are the type who believe dinosaurs used to wear saddles"". Almost every single thing Oliver says is either a lie, or spin, or an attempt to re-frame the entire issue with sleight-of-hand rhetoric."	" Worst Show
"	VladTheLimpWhaler
15	4 September 2017	1	tt3530232	"I was initially impressed with the show. I particularly enjoyed the way the show highlighted the use of ""A new study shows"" by the media. He did a great job of criticizing Trump and I wholeheartedly agreed with much of it. The investigation of Hillary's alleged crimes was completely disingenuous. I stopped watching. It's a shame, the show had potential. The few clips I've seen since have only reinforced my opinion. They are completely uncorked like the rest of the media over Trump becoming president. He does plenty wrong but you lose your credibility when you try to claim that everything he does is wrong."	" Lost his credibility with me
"	archangel95
16	20 July 2014	10	tt3530232	As someone utterly disillusioned by Jon Stewart's dogmatic chauvinism, I am so utterly relieved a talent as intelligent and insightful as John Oliver has been given the opportunity to have what is essentially a more educated, dialectical version of the Daily Show. Stoners reminiscing about Half Baked can keep TDS as their main source of news but at least now those of us willing to hear a different perspective on US issues and considerably more (and better) commentary on international affairs can at least have a weekly bit of entertainment. Only advice: Jon Oliver's audience is de facto more educated than TDS and we do not always need to laugh out loud to appreciate a segment, John Oliver does not need to mimic Jon Stewart's fear of silence and desperately reach out for trite laughs and non sequitur dick jokes whenever something isn't met with gut bursting laughter; America has youtube and getting high while watching Aqua Teen Hunger Force for that; sometimes being informative isn't (and does not need to be) outrageously funny.	" A refreshing, cosmopolitan alternative to the Daily Show
"	a_imdb-314-8359
17	15 November 2016	1	tt3530232	John Oliver is the unfunny current year guy who does 20 second rants. Then repeats his act for 20 minutes, he attempts to display a form cultural Marxist political view that is common place on the left today. There are the oppressors and victims, if you are a woman or not white you somehow being oppressed by a system that is full of institutional racism. It gets boring quickly, it might be entertaining for SJWs who have been lobotomised.John Oliver has decided that it is his mission to attack the next President of the United States Donald Trump. Sad really, John Oliver has become a meme on the internet, Current Year Guy. A lot of conservatives tuned in after the presidential election to receive their free intake of salt.They found a sad discredited man, continuing with a discredited progressive movement. Comedy Central have moved pretty far left, they may have cancelled shows such as Larry Wilmore's show which was trash. I bet this is the next one.	" Current Year Guy
"	happyjew
18	1 July 2019	10	tt3530232	Love how he exposes, explain and dares to talk about issues that need to be heard.	" Totally thinking outside the box
"	djzisumbo-652-811293
19	15 November 2016	1	tt3530232	"Parading as a likable ""funny"" news commentator, John Oliver is a force for the destruction of truth. His pattern is simple: first, he presents an idea which is in opposition to the ideas Time Warner wants his viewers to hold. Then, he makes a derisive quip mocking it— and anyone who holds it. Lastly his audience erupts into laughter, affirming to the viewer that it truly is stupid for anyone to hold that idea.Meanwhile... the idea hasn't actually been logically or rationally disproven at all. Absolutely disgusting.Here's an example:John Oliver did a segment on scientists who ""believe"" in climate change and those who don't. The catch? The one who didn't was actually just an actor... not a real scientist. And then Oliver brought out a bunch of other actor scientists who did ""believe"" in climate change. Making it seem so ""obvious"" that anyone who holds any skepticism about the topic at all is an idiot or doubting what is clearly such an overflow of credibility.Say and believe what you want about climate change. My point has nothing to do with the subject— and everything to do with how Oliver presents his own ""facts"". In my world, proving an idea wrong takes rational and intelligent dialect from both sides. Oliver simply presents one argument then makes it seem like anyone who holds the opposing idea is clearly an idiot— without presenting a single argument backed up by fact. Hope to see him, and all of his ilk, scrubbed from television, as he does nothing but stoke ignorance and hate in a world that is already filled to the brim with it."	" Condescending liar who will say anything Time Warner wants him to
"	mikeinthesis
20	8 July 2019	10	tt3530232	Hilarious, brilliant, interesting, relevant...just perfect!	" Every single show is pure gold
"	luisacf-96
21	6 June 2014	8	tt3530232	There have been a lot of comparisons to the Daily Show so I decided to point out some important distinctions. Aside from what one can only consider Jon Stewart's showbiz fatigue, there are two glaring differences between the Daily Show and Last Week Tonight.First, Last Week Tonight is not only fresher, younger, and therefore has more to prove (and has been successful so far), but perhaps most importantly its on HBO. At first the difference didn't really strike me, then they did a long segment on Comcast and Time Warner Cable that was not only eye-opening in an investigative manner, but is a subject you would NEVER see on the Daily Show, probably because it is ultimately a subsidiary of a subsidiary of one of those two companies.Secondly, and perhaps less importantly, Last Week Tonight is not, like its title suggests, a weekly show. Just look at its episode air dates. I'm not sure why so much time goes on between two episodes, but as long as they keep up what they've done so far I'm looking forward to it.Primarily I'm excited to see a comedy news anchor go after the things that have been off-limits for comedy central personas due to their network status.	" Why this show beats the Daily Show
"	welfarechrist
22	15 November 2016	2	tt3530232	While his writers can be very witty, he in general is everything wrong with American television. He pushes his narrative so hard its pathetic, and panders to publications like NYT, Washington Post, and CNN, saying they are the only honorable journalists left, while at the same time blaming the media for Trump losing, DESPITE him being part of that same media.Media comedic journalists should have the decency to report facts, and be unbiased. Oliver does neither. He makes an outrageous claim that cannot be backed up, then makes a witty joke to make people laugh, so they think he made a legitimate claim.I had respect for him when he exposed issues such as the pharmaceutical sales rep industry, but him being so shamelessly against Trump, to me, is unacceptable.	" Oliver is brainwashing
"	skeletalframe
23	7 May 2016	1	tt3530232	How can this be called news? Its an hour of a comedian talking about stuff that is not news but happened days, weeks, or sometimes even months ago and puts a left wing spin on it. This is not news, everyone I know that watches this show is misinformed and has no idea whats actually going on. Yes, hes funny but he makes his viewers ignorant. News is CNN, MSNBC, Washington post, wall street journal. They actually go out and do their own investigating. John Oliver watches news and takes what he heard, twists it into left wing garbage and talks about it for an hour. This show is the reason why millenials think Trump says things like all Mexicans are rapists. John Oliver watches the news, sees trump say there was a stat that said a lot of the illegal immigrants from Mexico are rapists, and puts in his show that trump says all Mexicans are rapists. Or he calls a woman ugly, which he has done to several men, and Oliver says Trumps a sexist bigot who hates women. Its just ridiculous. I hear people say they watch this because he is funny and gives his opinion. What, are you not smart enough to form your own opinions when given facts? Me being a millennial, I am worried when I grow up I'm not going to have news, just these left wing talk shows. Please watch actual news, then watch John Oliver. You will realize how he has been brainwashing you into thinking what he believes.	" Left- wing ""news"". Millenials- please stop watching this garbage and watch actual news
"	reedamland-223-781800
24	21 May 2018	7	tt3530232	"I've been watching the show since the beginning, and it continued to do a good job at finding stories that are woefully under-reported (if covered at all) and yet still socially relevant. Whether or not you agree with the story of the week or the show's take on it, it is important to get information out there and bring these issues into the spotlight. If you have trouble taking the assessment provided by the show you can always follow it up with some more research (hopefully from reliable sources). The only issue that I have with the show (particularly this season) is when John Oliver goes off on one of his feigned outrage bits. It is not that I dislike this type of bit particularly, but most of them are simply not funny and the audience reaction seems to confirm this. Yet, he doubles down and sometimes triples down on the same punchline that bombed the first time.
I do find him to have a good wit and be funny in unscripted settings, but I think that his insistence that what he says is hilarious and we just don't get the joke discouraging. I hope that the show continues and improves, as humor in politics is sorely needed."	" Still relevant, just not as funny as it could be
"	brentjohnson-43135
25	14 July 2014	10	tt3530232	"I think the most important way to describe the emergence of Last Week Tonight (LWT) is to characterize how it alters the progressive comedy news ecosystem.Here's my take, in a nutshell: The Daily Show (TDS) and The Colbert Report (TCR) do what they do and do it fairly well... and yet, LWT shows that a niche remains, and it can be summed up in these two points: 1) LWT shows that it's possible to dispense with the pop culture marketing accretion disk that has come to sort of weigh down TDS. I'm referring to the fact that, a) tho he still can ""bite"", Jon has become noticeably saddled with too much ""lite"" content--occasional bits involving current events that really don't have much relevance to the concerns of progressive political folk, and b) the occasional kowtow to absolute dawg flicks of Hollywood ""hot properties"". Oliver shows that you can resolutely dispense with this and still be total laff riot! He has put the lie to the assumptions of the suits that inflict their marketing-think on TDS.And, 2) Oliver has put a fresh and long-overdue ""world news"" spin on the structure of his show. In fact (am I hallucinating?), it appears that TDS has, of late, responded to Oliver's spin, and has been injecting a little more global perspective into his content... too little, too late?Note that I haven't mentioned TCR; and that's because, relatively speaking, it inhabits a separate space from both TDS and LWT.Anyway, the crux, from my perspective, is that it appears Oliver found that ""grail""; a portal to another media political content space which is exciting, while amazingly failing to be redundant! A tall order, but he fills it!Add to this the arguable assessment that, while his first few episodes seemed to be struggling to get airborne, it's safe to say he is now properly aloft. Congrats! As long as Oliver keeps running as fast as he can to stay in one place (a la Carroll; and apologies for the mixed metaphor), he should continue to deliver a quality product."	" Verrry innaresting development in the progressive comedy news ecosphere
"	rzajac
26	14 August 2019	9	tt3530232	If you miss Jon Stewart's Daily Show, don't get comfortable with Trevor Noah's version and haven't found something similar to ease your need, check out Last Week Tonight.	" The one
"	vatigue
27	12 October 2015	10	tt3530232	Way way way better than Stewart, Colbert, Noah. The way he combines comedy with real life issues in America is just tremendous. His coverage of FIFA and embattled president Sepp Blatter was ahead of the curve. If you're not watching this show you're missing out big time.Oliver uses dry British wit, combined with some light-headed mockery to expose stupid people, organizations, or general events. The fact that so many people he names choose to respond to his segment, show they are clearly uncomfortable with how bad he makes them look. It's utterly brilliant.Deeper than the comedy though my hope is that the issues he discusses (like quality of sex education, censorship, food wastage), bring forward positive change. It's not enough to just talk about it. I hope lawmakers/officials are paying attention and act on the issues that Oliver exposes.	" Best of the Best
"	shreerajtheauthor
28	28 July 2014	9	tt3530232	First of all, I LOVE JOHN OLIVER. My heart has been so many times taken by different UK comedians that I have lost count. But yes, John Oliver, very nice! And that's why I picked up this show to watch and I can say that I wasn't disappointed, the opposite of that.It's an easy formula: First pick a news topic, usually involving stupid people like US politicians, then make fun of him, and than well that's it. Basic formula which works so damn well, at least for me.But I have to say that sometimes I just don't like the jokes or the way Oliver tells them or acts them. He sometimes gets so charged about some things that I'm almost yelling him through the TV to calm the f**k down. And there sure is some childish jokes and sketches which irritate me, that a bit lowers my rating. But hey, that's Oliver we are talking about so what can I truly expect.Short story even shorter: The show is AMAZING, even more amazing than Spiderman (which by the way I don't like for some reason, maybe because he's wearing a childish costume with a spider drawn on it?, Hell, I got sidetracked again). Sure the irritating and/or childish jokes and sketches make it a bit worse but still: Bloody (Almost) Perfect. Verdict3^2/5+5, very highly recommend this show, one of the best Comedy News/Talk-Shows out there, second just after The Colbert Report. STEEEEVEN! STEEVEN! STEEVEN! Don't get it? That's okay, just go and watch The Colbert Report because it's truly the greatest.	" It's John Oliver, of course it's awesome!
"	arto_sode
29	10 January 2018	2	tt3530232	"Oliver will make some good points from time to time, and when the show first started he spoke about injustice and the like and I found him entertaining. After 4 shows I was done!! I'm tired of the typical cliche' ""trash the president"" rhetoric. I find it extra insulting to have to listen to a Brit or anyone not from this country thrashing our president and our government. I just want him to GO HOME at that point. And it seemed he opened EVERY show like that, or made it his main theme. I say, go back to Great Britain and trash your own country."	" Sometimes funny, most times tasteless and cliche""
"	saxjb25
30	7 March 2016	4	tt3530232	"I was a big fan of John Oliver on The Daily Show and, at least for season one of Last Week Tonight, I remained a big fan. I expected that with the relaxed language filter on HBO the dialog might be a bit more, shall we say, salty, and in season one the f-bomb was dropped more or less appropriately. But it seems that in season two, and even more in season three, the ""colourful metaphors"" are being used more and more frequently. And it seems they are being used with the attitude that ""well, we have an unlimited supply of f-bombs so let's use as many as we can.""Season 3 episode 4 was the worst yet. Was it really necessary to say that dinosaurs didn't reproduce on Noah's Ark because ""nobody f**ks on a cruise""? Or to have an extended segment with newscasters (and I use the term loosely) using euphemisms, with big block-letter overlays stating ""HE/SHE MEANS F**KING""?It's one thing when Samantha Bee responds to Hillary Clinton's comment about how she ""wouldn't have believed two years ago that she'd be running for president"" with a deservedly sarcastic ""oh f**k off"". It's another entirely when John Oliver interrupts the flow of an otherwise brilliant op-ed with crude comments aimed at the more juvenile audience members. Here's a clip of the Republican Debate and now here's a video of two turtles f**king. If the content were a little less salty (I allow that some profanity is warranted) I would still rate his show a 9. But with the increase in crude metaphors and pointless peppering of the f- bomb I can't rate him (currently) as more than a 4."	" Awesome op-eds but ruined by excess crudity
"	riverzak
31	18 February 2015	7	tt3530232	This guy, John Oliver, is seriously brilliant! He is the best thing to happen to the American TV after Jon Stewart. I've never been a die-hard fan of TV series or talk-shows, rather only occasionally watching some of them here and there. But after I watched one or two episodes of John Oliver's Last Week Tonight last year, I was addicted to watch it every single week until now, and I sure will never stop following the show. It is unbelievably entertaining, funny, as well as being highly enlightening and sharp about the world's recent political, social, and economical issues and news. The only thing that I would want to be changed about this show is its running time which, as of today, is only 30 min every week (this is very annoying!). What I love about this show is that it is actually making changes in the society to some extent. The show tackles issues that are essential to our everyday lives, perhaps not the most obvious problems, but surely really fundamental ones. For a civilian researching aiming to find the source of the problem in certain fields may be a pain in the neck, but every week John does the research and with a funny tone presents it to us. Issues that we should help to raise awareness about or fix in our society in order to live a better life or make life better for those who are unfairly suffering. Additionally, I am very much impressed by John's courage in tackling sort of taboo topics too. For instance, as a dedicated Football fan I have always been irritated and angered about FIFA's corrupt heads who are really overturning 'the beautiful game' into a business of theirs for personal benefits and a source of worldwide power. No one in the world of football really dares to reveal anything about their corruption and the people who are not directly and closely related to football don't really care or are not heard about this issue at all. Yet John Oliver devotes a couple of episodes to this issue and brilliantly gives FIFA a slap in the face, at least, makes a united voice to let the mafia head know that the people who love Football are not stupid and know what he's doing with their favorite sport. This was just an example about Last Week Tonight's versatility of topics and fields that are effectively and impressively undertaken every week.Most TV shows are truly a waste of time, but this show is not. It is a fantastic show to spend some time on and cheerfully want to follow it weekly. I personally always share his videos with my friends and they have started loving it too. Trust me; it's an awesome way to end a week.	" John Oliver is redefining satire and he's doing it flawlessly
"	Pouya_Mako
32	17 October 2016	5	tt3530232	Well i remember giving this 10 point proudly, I remember how i started loving the show, couldn't just wait to watch each week, and I am just sad now for the time i've lost.He takes on the most important news of the weeks with humorous approach, sometimes he takes on very important issues and do segment about it and even for the most bitter coverage he can make you laugh a lot (yeah i am psycho), the way that program works is a lots of alleged data thrown to you and since most of the subjects are look from a humanitarian way you may end up thinking that its a very objective show and it's whole true purpose is to make the viewers meet with unbiased news and learn the truth. For the most part and for the beginning that's kinda of true, his coverage of American imprisonment system, smoking and lot of things that I can go on are (and the way he approached to these topics) epic and makes you fall for it.And the breaking point is watching him cover a subject that you actually know or research the thing they throw at you, by the time I've realized how they were manipulating data in order to work for their perspective i was terrified... They/he menage(s) statements so well into tricking you to believe him and most of them are wrong, taken out of content and forced to lead something unsubstantial.For foreign policies, most of the translations are wrong and taken out of content, he insult countries insult their politicians with no factual basis, wrong translation, hell yeah he even focuses on the most stupid subject while leaving out the very important things for that individual countries.So as a show it's funny he is an excellent comedian it's a good comedy show but politically it did become biased and after some point you just question if anything he ever covered was correct at all and frankly he lost all the credibility in the end.Final words are i believe that's how you get an Emmy these days, sell your soul to be the part of mainstream media	" Emmy for your soul.
"	kzl-ishkenche
33	3 February 2019	1	tt3530232	Just because the host laughs at his own jokes doesn't make a show funny. This show is wildly corny and it's hard to make it through an entire episode.	" Not funny
"	MikeM9495
34	10 August 2014	10	tt3530232	"Intelligent and well researched, Last Week Tonight does some hard-hitting segments that leave most other news shows way, way behind.I used to watch Comedy Central's back-to-back ""news"" shows every night. But, the formula for those shows has devolved into tedium. The writing is good and, luckily for them, there is always something incredibly stupid going on in politics. But, I can't watch those shows anymore; I don't even want to.Last Week Tonight with John Oliver has the laughs. It has the ""stupid politician does stupid thing"" segments. But, those two aspects of the show are just the potatoes served alongside a thick, juicy slab of deep, serious news brisket. No subject is safe while the camera is on Oliver. He hits the nail on the head when discussing the death penalty, issues with advertising, the Ukraine situation, Net-Neutrality (thank you), equal rights in Uganda, and so many other issues.I have two complaints: Sometimes the mic on the crowd sounds like a laugh track. It's not, though; the show is filmed in front of a live audience in NYC. Sometimes Oliver gets so carried away that he starts to doubt himself and you can see the cognition on his face. Just let it all out, John!Those are the cons! Watch this show, it's worth every penny. And now, this..."	" Oliver's Twist on the News
"	ianhyphen
35	3 June 2019	1	tt3530232	"Used to be good the first 2 seasons but wow, this took a left turn. There is already ""Trump bad"" on every late shows. This is just not enjoyable anymore. I miss the odd things that would fly under the radar like The ""VA"" piece. The ""Trailer housing"" scam or even the ""Brazilian election coverage"". These pieces brought awareness and change. ""Trump bad"" is not bringing awareness and change. This is just divisive and is not the point of comedy."	" This used to be good.
"	iix-31422
36	25 September 2018	1	tt3530232	J. Oliver turns my stomach with his moslems whitewash ... a spineless coward .	" Disgusting left propaganda.
"	self_conscious
37	6 June 2019	10	tt3530232	"It's amazing, he could have chosen to do a show that only helped him gain money but he chose one that helps America (which isn't even his homeland) and it's people... I honestly want to get an HBO subscription just to watch him!! And above this he airs a lot of his episode on youtube FOR FREE!! And on top of that... The cherry on top of this Amazing meaningful show that helps improves people's lives and change laws for the better HE IS SO FUNNY AND INTERSTING!!
Who would've imagined I'd ever be hooked on what is basically a news show... John Oliver is one of the few that truely deserves everyone's respect... ( This is the only time I ever rated a show .... If only I can do more for his show)"	" A magnificent show that have already helped so much..
"	fantom-56381
38	23 December 2018	6	tt3530232	"The first two seasons were pure gold, I gave it a 9 on IMDb, but had to now rate it down coz it's not funny anymore. I'm no trump supporter but he just goes on and on and on about trump. Boring. Usually insulting people on the way. Preferred when he was funny and not just attacking people.
The original show dealt with everyday issues but what we see now it's an all out ideological war which isn't funny nor interesting. Please mr Oliver go back to the old formula coz the show won't last long."	" It went down the hill
"	maciek-bos12
39	17 March 2019	1	tt3530232	Just not good anymore - all about how trump and his policies are bad - obviously we need a foreigner to tell us about american politics bc we're too dumb to figure it out on our own, and obviously john knows better than we do (/sarcasm)how would we know we're supposed to believe the russians hacked the DNC and turmp works for putin if this imbecile didn't remind us of the CIA propaganda every two minutes	" stopped being informative or funny in 2016
"	joshnycimdb
40	20 April 2017		tt3530232	One episode made this realization rather obvious. As the leftovers from the daily show race towards the bottom, we are left with hilarious stupidity as Bee, Noah, Colbert and Oliver embarrass themselves on a weekly basis. Each show basically reaffirms the idea that not only have these clowns not gotten over the election, but they reached full retard in a short period of time. Remember mr. Oliver, you never go full retard.	" the male version of Samantha Bee
"	dob111283
41	27 September 2014	10	tt3530232	I was never much of a fan of John Oliver when he was on The Daily Show (probably because I find British accents slightly annoying - sorry!), so I had no plans to watch This Week Tonight. But a few days ago I try an episode after my boyfriend convinced me to give it a try.Wow, am I glad I did! Since then I've been devouring the episodes. The show is equally as funny and clever as The Daily Show and Colbert Report. Unfortunately, HBO's studio seats a much smaller audience than Comedy Central, so there's less laughing and cheering, but if the audiences were the same size I don't doubt it would be equal.In my opinion, Last Week Tonight is better than The Daily Show and The Colbert Report -- two shows that I'm big fans of.Why, you ask? Three reasons.1. He doesn't endlessly talk about elections. Both Stephen Colbert and John Stewart seem to talk about US elections day after day, even when elections are two years away. Not only is that boring, but there's way more important news going on that gets no attention.2. He focuses more on international issues. The main focus is US news, but he gives more coverage to elsewhere in the world than Colbert or Stewart.3. More in depth coverage. The beginning of the episode is an overview of some news highlights, and then he spends the rest of the episode doing one or two issues in depth. I find I'm actually learning things, being educated.Great work, John Oliver.	" Better than Daily Show and Colbert
"	amy-e-h
42	23 September 2019	9	tt3530232	"I know a lot of the lower ratings are from people complaining about the show being too ""left-wing"" or anti-Trump, so here's my take on that: there are currently a grand total of ZERO news-related that are completely apolotical. Some are far right, some far left, and some are varying degrees of right or left while pretending to be neutral.I watch this show because it appeals to my sensibility while providing intelligent insights into subjects I'm otherwise unfamiliar with. Conversely, I don't watch Fox and Friends because their views disagree with mine. However, I'd be a hypocrite if I searched for that show on this site just to give it a low score because it doesn't appeal to my viewpoints.Enjoy what you enjoy."	" Thank Jebus for John Oliver
"	hasansevik
43	23 October 2016	9	tt3530232	"John Oliver's show is one in which he intersperses current events with comedy. And to keep your audience laughing while looking at such events today is quite a feat. I've only been familiar with Oliver and his show since March of 2016, so I didn't know about the kerfuffle raised when he was not picked to host The Daily Show after Jon Stewart left. However, I think things turned out for the best because John in a weekly show where he gets to go deeper on issues is probably more useful and funnier than John only getting a monologue and a few one liners in on a nightly show.John rarely has guests of any kind, so he has to be imaginative in his main segment or he risks getting preachy, which usually just consists of John talking to the audience with clips to illustrate the point he is making. Oliver always maintains a sense of humor even when he is discussing some of the more heinous institutions of American life such as the concept of medical debt and medical debt collections. He doesn't sport a condescending smile but rather a ""isn't it ridiculous that we do things this way"" smile. He is quite unpretentious, describing himself as a ""rat faced Brit"" and his show as ""a petting zoo with a desk"".Since I only started watching the show since 2016, John has been blessed with having Donald J. Trump as an unfortunate wealth of comic material. So far in the 15-18 months I have been watching the show, John has highlighted some really oddball third party presidential candidates in 2016, and in the most recent season he transformed his desk into a French Bistro to explain to the French people in their own tongue - while smoking! - why they should not vote for far right wing candidate Marine Le Pen, given a new train set to a local news show in Scranton - John is somewhat obsessed with local US news programs, and traveled to Pennsylvania to buy five wax figures of presidents from a presidential wax museum that was closing, one of them being Warren G. Harding. He then proceeded to show a trailer of a movie entitled ""Harding"" that could be made if one had access to a wax figure of the president, which his show did. It was actually the only trailer I've seen in the past two years that made me want to buy a movie ticket - and the film doesn't even exist! Highly recommended if you want to see some horrifying things about American political and economic trends that you will definitely not see on the 24 hour news cycle, and get some creative laughs to somewhat counteract that horror. Highly recommended."	" This show cracks me up
"	AlsExGal
44	13 September 2015	10	tt3530232	This satirical news reporting show keeps me in stitches, and occasionally even brings me to tears. But never too long before the hee-hawing returns. Watch John Oliver, reporting the news as a human who cares about humans, and who isn't afraid to highlight society's shortcomings (and triumphs) with thorough research, relatable metaphors, delicious wit, adorable animal clips, and a most lovable, magnetic personality. Most certainly a must watch for any Stephen Colbert or Jon Stewart fans. But honestly, I find Last Week Tonight even more informative, objective, entertaining, and educational about current events. I only wish that it was available to a much wider audience than just HBO subscribers, as most people do not fall into that category!	" My favorite news source for the week.
"	caitlinraby
45	23 October 2018	1	tt3530232	Liberal agenda pushed on the show everyday. Typical democratic talking points.	" One sided views
"	nypd-55657
46	19 December 2015	8	tt3530232	"Every week John Oliver details the main events of the week, makes a few jokes about them (often at politicians' expense) and then unveils a piece of damning investigative journalism so important and thorough you wonder why some more mainstream news show didn't do it.The revelations often leave you appalled at what is going on, and wonder why nothing is being done about it.Not only do Oliver and his team expose the injustices and scams of society, they often do something about it, creating characters or organisations to mock the villains.Now, if you're thinking, well Jon Stewart did this first, on The Daily Show - not really. Yes, John Oliver was a contributor to The Daily Show and, to an extent, honed his craft there, but this is far better than The Daily Show in terms of investigative journalism. In fact, calling The Daily Show investigative journalism does journalism a disservice. Stewart's idea of journalism was to take a story, generally involving a right wing organisation or person, and mock it/them, sometimes using disinformation or misinformation, in what was really a a very primitive, uninformed editorial. If somebody pointed out the inaccuracy of his editorial, his defence was always ""Hey, we're a comedy show, what do you expect!?"". Fine, but then don't behave like you're an authority on the matter...Don't get me wrong - I enjoyed The Daily Show immensely..for its comedy. Stewart should avoid trying to pretend he is an authoritative political pundit. This is why I preferred The Colbert Report - Colbert never took himself seriously.On the other hand, John Oliver is setting out to objectively, thoroughly and accurately expose evils in society. No half- measures, no playing to the gallery, no lazy journalism, no relying on political stereotypes. Most importantly - no safety net. No fallback of ""it's just comedy"" as that would totally devalue his show and any future articles.Well, that was until late-Season 3. The lure of easy, cheap Trump jokes could not be resisted and unfortunately that's all the show now seems to consist of. I'm no fan of Donald Trump, and the man and his antics beg to be parodied, but Oliver's obsession with him and his one-dimensional, cheap-laugh ridiculing of him got very tedious very quickly. It all just smacks of lazy writing and lack of originality. Gone are the fresh perspectives and thorough research, replaced by predictable jokes. After, at one stage, being a massive fan of the show, I gave up after two episodes of Season 4."	" Funny cutting-edge investigative journalism (until Season 3, that was)
"	grantss
47	29 December 2018	1	tt3530232	Listening to snowflakes melt is beyond boring. Listening to the screech and moan is funny, though.	" BORING
"	captiveliberty-92564
48	5 October 2019	9	tt3530232	"If you're one of those idiots who gets almost all of his or her news from one TV show, at least make it this one. You'll get a quick peak at major events and an in depth look at an important subject, often one you may not even be aware of, and be entertained.
This week the in depth was about compound pharmacies, thankfully an institution I've not needed to encounter. I was educated, entertained, and, well, saddened a bit, but at least a bit more aware.
Probably the most open and honest current events shows on the air, including the various news shows."	" Unique
"	xoxone
49	7 May 2018	10	tt3530232	John is a comedic genius. I wish the show came on more often or was an hour long. Absolutely brilliant!	" John Oliver is the most clever and funny person on television!
"	renaekearse
50	17 August 2019	1	tt3530232	Thoroughly unpleasent show that seeks to take advantage of the uninformed	" Just stupid
"	iamchrisiam-682-74783
51	17 November 2018	10	tt3530232	Last Week Tonight is not your regular show focusing on political satire, its clever, intelligent and hilarious. Covering a vast majority of topics from local community issues to macroeconomic and worldwide social problems. It manages to educate people without talking down to their audience while also being funny and interesting during the process.	" Clever and hilarious
"	minister_of_silly_walks
52	21 March 2016	10	tt3530232	What's the Daily Show for during the week, is Last Week Tonight with John Oliver for the weekend. I personally think it is even better than the Daily Show, because it is very informative. If you like the Daily Show, and liked the Colbert Report, then you will probably also like (or love) Last Week Tonight with John Oliver. Also if you don't like the Daily Show nor liked the Colbert Report, you still could like Last Week Tonight with John Oliver, because it is more focused on facts and information, then on comedy. For me, Last Week Tonight with John Oliver became instantly with the first broadcast one of my favorite shows on TV.	" Even better than the Daily Show
"	videome-35398
53	3 August 2015	10	tt3530232	Jon Stewart is a genius. He has a genius comic presence, the most awesome comic delivery, and the best material. His subjects are very, very timely (after all it is a news show) and relevant. I adore his mascots, his hashtags, and his use of his hands on his desk. He is very watchable. The phillip-morris smoking bit, FIFA ridiculousness, Miss America debacle, 50 Shade of Gray dumping, Putin roasts, and just about everything else is crazy funny! And in spite of it being a comedy show, he tackles very serious issues in just the right manner.I love that he is not afraid to say anything about anyone in spite of real threats. I never miss this show, its my laugh for the week! #WeLoveJohnOlvier	" Best show ever
"	flowertimezones
54	16 September 2017	9	tt3530232	HBO's had quite the renaissance since the 2000s: with shows the likes of The Sopranos, Band of Brothers, True Blood, Boardwalk Empire, Game of Thrones, True Detective, The Wire, WestWorld and Last Week Tonight With John Oliver. All these shows are masterpieces in television-culture and have become staples in American entertainment. John Oliver is a nice and more uniquely contemporary addition to those shows in that it's a talk-show that tackles things which the modern world finds confronting: and shows us the funny side of it all, and easing our collective pain.Since 2017, specifically since Donald 'Grab 'em by the Pussy' Trump became President, John Oliver has been doing beautiful and 110% true fact-attacks on Trump and his supporters, ranging from Steve Bannon, David Duke, Alex Jones and many others. And even though these segments cover modern events, they're done in a way that can be told as a story which can still be seen as interesting and entertaining down the track. We ALL have a voice and should NEVER do the hateful things of the people John Oliver is rightfully chastising.This show is a classic and as long as there's an imbalance in modern politics, John Oliver will be there to adjust the scales making sure everyone has the same amount of social power regardless of who they are or where they come from.	" One of TV's Best Comedic News Shows! And Perfect Commentary on Trump's America!
"	Johnny-the-Film-Sentinel-2187
55	11 October 2015	10	tt3530232	The facts this show tells about America makes me never want to live there however, the fact this show is still broadcasting in America makes me what to.This show speaks to everyone; it is a fusion of: news, documentary and comedy that provokes all emotions known to humankind in just under 30 minutes in each episode. No doubt, that John Oliver delivers (in my humble experience of TV shows) an unparalleled outcome however, such a huge effort cannot possibly be a one-man show. Thus, this is a small thank you note to the small army that should be helping him in getting the material for the show and (I cannot believe I am saying this) also the legal team who are -I imagine- cannot catch a breath dealing with the reflections on each episode.	" A MUST watch......now, now, now.
"	namear75
56	23 March 2018	8	tt3530232	"Ive noticed that 99.99% of the reviews are right-wingers who say ""ITS JUST MY OPINION"" and then refuse to let anyone else have, you know, an opinion. yes, its left-wing but, no, it doesnt mean that its inherently wrong. there are PLENTY of sources from Actual News Shows^TM and newspapers, so, unless they want to source their arguments against the show and the left in general... im all ears"	" actually VERY good
"	kingmoleman
57	28 August 2016	10	tt3530232	I used to love John Oliver on the Daily Show, and when he filled in as host for Jon Stewart during his 2013 absence he really was excellent (initially stiff but settled into the role). So when he moved to HBO with his own show, I was sorry to see he leave the Daily Show but eager to see what he could do. The first few initial episodes were good and showed promise, but then John and the writing team hit their stride and week after week provide some of the most insightful and educational exposes with humor.Best Comedy/News program on TV at the moment and I would love to see them win the Emmy next month.	" Just gets better and better
"	dhughes2
58	24 September 2017	10	tt3530232	John Oliver's blunt look at the world is refreshing. Serious topics are covered in depth, while humor is used to keep things from becoming too bleak. It was this show's story on infusion clinics where I learned Richard Nixon was the one who set up kidney dialysis through the federal government. I appreciate the attention to detail, and the honest appraisal of any situation. The few people I've encountered that don't like John Oliver tend to be those who are uncomfortable with facing unpleasant facts. They don't want to face ugly truths, and they tend to be highly judgmental of others. John Oliver is smart, witty and entertaining. With with an open mind, and you will learn something new.	" Brilliant
"	rachelradding
59	1 January 2015	9	tt3530232	"Get on this folks. This is the ""shiznit."" It is honest. It is considered. It is informative. It is not Fox ""News."" Yes, the word ""News"" was used in that last sentence, also with the word ""Fox,"" but we all know that Fox ""News"" doesn't actually have any news. Nothing new there.Moving on, if you like Stephen Colbert (either of them), Jon Stewart, or perhaps even Bill O'Reilly (? - I'm not his biggest fan), then you'll love this fellow. He brings with him to the news desk the news. A tautology you say? No. Of course not. Just ask Fox ""News"" if they've ever reported on the news. Silence is all you'll hear from them.Anyway, it's worth the watch. Hell, even the binge watch."	" Yes! Watch This Right Now!
"	jimfromjimsmowing
60	8 September 2019	1	tt3530232	Just give the government more power in order to stop evil corporations, and if you disagree you're a moron. Every. Single. Episode.	" Sneaky, one-sided, collectivist propaganda
"	lancestolz
61	6 August 2018	10	tt3530232	A show I look forward to every single week! John Oliver is not only hilarious, but an excellent teacher on world issues and how things really work. I have learned so much watching this great program. Thank you HBO!	" Best funny & educational show ever!
"	ericscfrench
62	5 December 2019	10	tt3530232	My absolute fav show. Cannot wait for new episode every week.	" The best show
"	raspecwamen
63	9 June 2014	6	tt3530232	I had high hopes for Oliver's new show, especially after catching his intelligent and hilarious take on Net Neutrality. Unfortunately, Last Week Tonight only occasionally hits those peaks.Much of the time, Oliver is content to shoot rubber bullets at sitting-duck targets. Occasionally, he misfires spectacularly, and simply goes along with the official US government line rather than challenging it. For example, Oliver seems blissfully unaware that 90% of Crimea is ethnically Russian, and - far from needing to be forced at gunpoint, as Oliver suggests - favored a return to Russia long before the recent conflict erupted in Kiev. The situation in the Ukraine has endless nuances worth exploring (pro and con), but Oliver glosses over them all and contents himself with ridiculing Putin - an easy, politically-correct target that everyone from David Letterman to Saturday Night Live has already exploited ad nauseam.On the other hand, Oliver does score points with his coverage of the Indian elections, a huge news story which - as he points out - has been studiously ignored by the Western media. Can This Week Tonight ferret out more such stories that truly do need comment? It's not an easy task, and it's hard to say whether Oliver has the serious commitment it will require.After five episodes, Oliver seems to be positioning himself more as a sort of 'Jon Stewart with profanity.' This makes him far less interesting as a commentator than his HBO compatriot, Bill Maher. Maher has some strange opinions, to be sure, but at least they're always uniquely his own. He offers a valid, informed and always iconoclastic perspective, worth hearing even when you vigorously disagree with it. He's also a lot funnier than Oliver.We can hope that Last Week Tonight will evolve. As it sits now, it's only occasionally amusing, and frequently redundant.	" Occasionally good, often lame
"	fung0
64	18 June 2017	9	tt3530232	I was never really into John Stewart of Stephen Colbert (nothing against those guys, I just never got around to watching the Daily Show or the Colbert Report) but my best friend recommended this show to me. Getting a different take on the news is pretty interesting and despite my initial reservations, I found myself binge watching episode after episode. The only place I was really familiar with John Oliver was his relatively short stint on Community. But I think he does a great job pulling double duty in Last Week Tonight. He gives insightful exposition on serious topics yet has to keep the audience engaged by trying to make them laugh. Sure, he borders on mugging at the camera during certain skits but this is a job that requires he walk a very fine line and I think he pulls it off. He's really the only cast member but a wide variety of celebrities cameo in his skits to keep things fresh (e.g. Nick Offerman, Keegan Michael-Key, Jeff Goldblum and Seth Rogen).This is a property where it would be hard to sway someone's opinion on it by just typing up a review. This show has definitive bias and if you don't fall within the target demographic, you'll quickly switch this off. But that shouldn't diminish the fact that this show does a great job helping people grasp important subjects that they probably should be paying more attention to. I laugh at almost every episode I watch and they pick from a wide range of topics to cover. They do the obvious subjects (President Elect Donald Trump is skewered on a regular basis) but they open people's eyes to problems that you don't encounter everyday (two of my favourite episodes covered food waste and mandatory minimum laws for drug offenders).At minimum this show is consistently entertaining and during certain episodes it can actually be pretty affecting. It means something that I still really like this show when Oliver is actually pretty critical of Canada on a constant basis. If you lean the way politically that Oliver and his crew do, this could end up being you're new favourite show. If you don't fit in that category, its best to skip this and go whine about it on your preferred social media website.	" Last Week Tonight Mixes Informative Commentary With Funny Jokes for a Winning Combination
"	CANpatbuck3664
65	20 February 2017	10	tt3530232	I almost never write reviews. However, I feel compelled to inform people who haven't seen the show to know what they have missed.He covers every topic you never think to imagine and he does it with such wit and grace that you wish he was American so he could run for president. Honestly, I've never been able to disagree with anything or any view that he has shared. He is the most honest person on television and the country would be a better place if everyone watched his show.Even if you don't share his political views, his topics cover moral dilemmas facing our country today. If you are super conservative socially, you may not like him. However, if that is the case, you should at least hear what he has to say before disagreeing. If this show is ever canceled I will take a s**t on Richard Plepler's car every day.	" The last bit of truth on TV
"	kingjosh500
66	26 May 2017	10	tt3530232	John Oliver is one of the best comedian and political commentator in recent years and since 2014 he is the host of this show in order to comment (obviously) the events that take place in our crazy, weird and sadly miserable existence.In his tonight show he has given analyses to everyone from politician to companies to films and every time the out come is hilarious and insightful. In all honesty his show has been proved for many, myself included, as the best tonight show of our generation.However his work is not only jokes, thesis and a crash-course to politics ,which is not boring. He has taken interview by some of the people,who or whose actions has analyzed. Some of them are the Steven Hawkins, Edward Snow-den and more recently Dalai Lama.Also he and his team have managed to influence political decisions through their work and even going out of their way to inform groups in issues in which have little or no knowledge, and often their well-been is in jeopardy (see for the Tobacco industry).All in all Mr. Oliver is perhaps the best think that happen in HBO since Band of Brothers and Game of Thrones and if you haven seen him yet ,what were you doing in the past years, you missing something awesome .	" Make comedy out of the events of our world
"	tankace
67	13 June 2019	5	tt3530232	Ive always thought John was a genuine comic especially on the daily show. The constant negative Trump talk is a bit rhetorical without any factual basis... just regurgitating all of the other leftist pundits. Economy booming- stop whining just because you don't like the person he is.Mostly positive reviews from snowflakes and progressives	" John Oliver better without Trump rhetoric.
"	latham-40743
68	6 May 2019	1	tt3530232	"I tried watching this show once(S05E01)....and all I saw was insult of the entire world. It was exhausting to just keep hearing this guy for half an hour.
some how this guy collected weird expression pictures of people. The kind of pictures that were taken between poses like open mouth and wind blowing hair messy....what a guy!! what an achievement!!Guy talks about world laughing at American president and he is the one running his entire show on teaching people to laugh at a president of the country he lives in.Try talking about good things in world....
Its exhausting to watch this show where he keeps insulting people minute after minute..."	" its a show to Insult the whole world...this huy just keeps on insulting..This guy never shuts up for even a minute.
"	BossBuzzerr
69	18 July 2015	10	tt3530232	not only does this show entertain the sh*t out of me but I feel like I learned some thing and I feel like a better person!They news you get here is more informative than any news channel will give you, which is kind of messed up, but just enjoy it and try not to think about that?Booty bumpsJeff!I call DingoTen lines Ten lines Ten lines Ten lines Tin loans Ten lines Ten lines Ten lines Ten limes please!	" Simply the best television program ever
"	cmof1
70	25 October 2017	10	tt3530232	Right up there with The Daily Show w/ Jon Stewart, but with more 'in- your-face' jokes. Does an excellent job of exposing the nonsense in today's events across the globe.There's a reason the show currently has a 9.0 out of 10 stars. It's pure awesome.	" This is how I like my news.
"	kchiasson-77464
71	10 September 2019	1	tt3530232	"First few episodes, I didn't understand the hype. Then I really started to like the show and watched it religiously. But now that I'm fully red pilled, I see the show for what it is and feel foolish for being duped in the first place The more accurate title and introduction to the show would be: Welcome, welcome, welcome to Last Week's Propaganda, I'm your host John Oliver with just a quick recap of how we want you to feel about the events from last week.The main goals of the show are to: undermine capitalism as well as Western Civilization, push the SJW narrative, interfere in foreign elections/affairs, and to of course make sheeple; which is the same as all the other late night ""comedy"" shows. This one seems to do it best though with their incessant use of hashtags to keep their finger on the pulse of the herd and the fact it wins the Emmy every year.I still watch the show though and most likely will continue to, at least until I cancel my HBO, but I now see the show for what it is. I know their up means down and so forth. When they campaigned against the current Brazilian president, just before the Brazilian election, I was happy that he won! They now rail against Boris Johnson about as regularly as they do Donald Trump. This show is really against Brexit having done 5 or so segments campaigning against it. If you're to only watching this show you'd think there was just one issue that mattered in the U.K. The one time they did show Tommy Robinson, it was a subtle cheap shot and if you didn't know who Tommy Robinson was, you would've missed it. But that is the one thing I do still like about the show; seeing how the Left fights dirty.The show purports to be on the side of their viewers and do stories to help the little guy! Make no mistake, this is the favorite show of the globalist elite. Just look at their trophy case."	" Hate masquerading as comedy
"	ndtechncian
72	1 June 2019	3	tt3530232	I loved this show until he covered a topic I knew something about. I don't think he makes things up but is very misleading and doesn't cover in a balanced manner.	" Watch a topic you are familiar with.
"	scottforester-63929
73	18 June 2016	10	tt3530232	"John Oliver is my Lord. I mean that in a non-religious manner, especially being an atheist...He makes me cry sometimes. I forgot there were people like him in the world. He gives me hope. He makes me want to keep living. He makes me feel a huge relief of sanity and goodness. We need him, and we need way more of him. When I watch his show, I feel like the hatred and negativity of the world is pushed aside. It is such a relief to hear good things, for a change. And I don't mean ""good news."" I don't really care about good news. I mean, he doesn't add to my loss of hope for humanity. Thank you so much, John, for existing.Somehow, you can get away with all those disgusting jokes. I don't know how you do it."	" how does he actually exist
"	tanyayeshello
74	20 October 2017	10	tt3530232	"More appreciation is owed to Last Week Tonight than you think, and it is more necessary than other current shows you might compare it to. If you have not yet listened intently to Oliver's monologues, you cannot have an valid prejudice against it or assume the show merely tries to push the typical liberal agenda. Unlike the Daily Show with Trevor Noah, Colbert's show, and Seth Meyer's show, Last Week Tonight does not rely on the existence of Donald Trump to make comedic profit. We know this because before Trump even ran for President, Last Week Tonight reached prominence by repeatedly causing an actual effect on subjects it covered: Net Neutrality and the FCC, the woes of FIFA, Miss America Pageant, Bail requirements in New York, and Civil Forfeiture laws. No other comedian's show can boast this, to put very simply.If the show were not selfless, it would deserve the slogan ""Make America Sane Again"" a hundred times more than Real Time with Bill Maher."	" Most prevalent & most relevant
"	bombadil-esquire
75	19 January 2016	10	tt3530232	"You thought Jon Stewart was becoming unbearable? You couldn't stand Bill Maher's condescending tone? You cannot stand most of MSNBC, CNN or FNC (with some exceptions, those being Maddow, Tapper and Kelly (and sometimes O'Reilly) for me)? Well ""PRAISE THE LORD"", your calls for rationality and sanity have been answered in the best of ways: a TV show that may (just) push some people to attend their local council meetings more often or read papers on public subsidies on a regular basis. More than just a ""news show"" (which ""The Daily Show"" kind-of-was), this probably represents some of the most interesting ""investigative"" reporting (well, most of the ""investigation"" is being done by others, but John Oliver is providing them with a megaphone) in a while. From local governments being hoodwinked in subsidizing football stadiums to chicken-farming malpractice, from Police Departments using unjustified ""civil forfeitures"" to pay for Zambonis and ""slurpee machines"" to mandatory minimums, this show has been acting as a firm, but just, mirror on America and its shortcomings. However, and this is where the show differentiates itself from the rest of the crowd (something that ""conservative media"", old like new, has been noticing... by not attacking it), it does underline the positive aspects and advances that are occurring. When you get a subject on bail and its effects on the poorest in society, you get the US-based counter example (paying a bail amount that fits your budget). This is what makes this show not just great, but a must-watch. It does not fall into either eternal desperation or irrational wishful thinking. It strikes a balance (most of the time) and sticks to it."	" Good Lord in Heaven. Thank You.
"	fissorevincent
76	16 January 2019	5	tt3530232	"(edit... keeps lossing it and less and less funny over the years... some of the old stuff are still good but still getting less funny over time....) John is a fairly funny man, but he misrepresents a lot of data
and over estimates him self and his opinion as right....
he's cherry picking his data to suit his political agenda... -and dont get me wrong i agree with a lot of what he says (and dissagree with as much if not more)
but it shouldent be about politics and if a person is using humor to forword is political agenda it must at least present the facts as they arethe fact the show emptesises so much about politics ruins it a bit and to my opinion looses what it used to have... -becuse of poor use of humor the more political it getsand that's a shame becuse john is funny
but his opinions ruin the show... (and don't get me wrong i belive at the freedom of spech and that he can speek his opinion but it comes to the fact that the humor suffers)"	" funny horrible but funny
"	imdbmoviereviews
77	22 April 2019	4	tt3530232	The only redeeming factor of this show is when John Oliver reports on the serious, main story, after his Trump bashing is finished for the night. The opening after the Theme has finished reminds me of a three year old throwing a temper tantrum, pounding on the table, because he has not been fed soon enough. Then begins the Left Wing reporting that HBO just loves. Then, although not always, he actually talks about his main story, and actually brings up some good points, while still adding his very juvenile takes, as he does throughout the whole show. Sometimes I can take it... sometimes I can't.	" Very juvenile humor with Left Wing commentary thrown into the mix.
"	Steve819
78	9 October 2018	1	tt3530232	BOLSONARO 2018! Now you will experience the anger of Brazilians. Don't dare supporting PT, don't you dare threatening our democracy.	" Communist!
"	carolvqc
79	29 April 2014	6	tt3530232	Jon Oliver's always been one of the best correspondents on Comedy Central, so it was sad to see him leave the Daily Show some months back. Here we see him in his new show: Last Week Tonight, a weekly news satire on HBO.The format is time-tested. You have two major news stories that take up the first 2/3 of the program and a guest interview for the last segment. The show is basically like last summer when Oliver took over the Daily Show for Stewart, except with more cursing.My problem back then was that Oliver doesn't play the straight man well and we the same thing with his new endeavor. Everyone on the Daily Show was supposed to the foil to Jon Stewart's calm voice of reason. After seeing Oliver act campy for so long, it's hard to take him seriously as a host.That being said, the variety of the stories the show picks to highlight are good. Almost all of them were stories I had not heard much about. I'll at least watch a few more episodes before I decide whether or not to stick with it.	" Basically like his stint on the Daily Show
"	SaxAndViolins
80	24 April 2019	6	tt3530232	"Oliver was a breath of fresh air. Funny yet intensive and well researched. He addressed topics in depth that others did not. I looked forward to every show.
But this season I am gradually turning off. He has gone a bit crazy. He tries to be way too funny and it's a shame. I also take offense to his inserting ""F,,ing"" into nearly every sentence. That's not needed."	" It's not what it once was
"	itaylor-50665
81	1 August 2016	10	tt3530232	I look forward to this show , its like a sacred reunion with the voice of reason. The most defining voice of our generation. Jon Stewart's departure left a void, and I am truly grateful there are gents like Colbert and Oliver to carry the flame. Both with the same wit and balls. But I have to say, with all due respect, Colbert is just a snack I snack on until Oliver's main dish. Best served whichever f**king way he chooses to cook it. You are vital to this culture's sanity, John. Your truth slicing though the cancerous bullshit of our political, public,social, human platforms with the such graceful prophetic and poetic precision. I am overcome with gratitude after every show that there is a voice like yours able to shelter us from the countless damaged narcissistic sociopaths spewing their rhetoric insanity to the masses. Your revelations are revolutionary. Che Guevara and John Lennon love's child.	" I love this man
"	anthonyp-747
82	21 September 2016	10	tt3530232	"Having spent several years as a correspondent on ""The Daily Show"", John Oliver got his own show. ""Last Week Tonight with John Oliver"" focuses on assorted topics about which people don't think much but should be concerned about (nuclear weapons, FIFA, payday loans, etc). Oliver comically features exaggerated analogies relating to popular culture. An example was when he discussed sex education and the awkward movies that get shown to students about it. He ended the episode with a clip of Kristen Schaal, Laverne Cox and Jonathan Banks - who had appeared in a sex ed movie - reminding people that it's nothing about which to be squeamish. One of my favorite episodes was when Oliver focused on Donald Trump and revealed that the family name was originally Drumpf, and called on everyone to refer to Donald Trump thusly.This show, like Oliver's previous gig helps one cut through the spin and noise surrounding current events. I really like it, and you probably will too. His next HOW IS THIS STILL A THING? could focus on the monarchy in his native country."	" You said it, brother!
"	lee_eisenberg
83	27 February 2016	9	tt3530232	It seems that when disillusioned by mainstream News, a Broadcast Journalist picks up the microphone and lashes out at the system without losing his wits, gives us something pristine and real.Issues pertaining to human suffering are ubiquitous and exist in somewhat similar fashion throughout the globe. That is another reason to like and appreciate Last Week Tonight with John Oliver. The primary reason is the sheer wit, sensibility, in-depth reportage of issues without making it drab for the ordinary viewers. John Oliver is an honest fellow with a remarkable eye for issues swept under the rug. Makes you wish that real news was this thorough in their investigation or unbiased.No wonder such a show was only possible in HBO, which is synonymous with quality content and freedom of expression.Yes, for many across the globe John Oliver may appear as another one of those biased liberals who take on capitalism and talk idealism, but have no idea of the ground reality. I would just like to say digest and move on, it is a comedy show after all.	" TV Journalist Gone Rogue
"	bhatt-parantap
84	20 July 2019	1	tt3530232	Too many swears. Feels like something not worth watching.	" Too many swears
"	ficahb
85	30 November 2019	1	tt3530232	Cant seem to write anything new since the 2016 election, and seems to constantly alter the facts in favor of a left wing narrative. I get it. Hes a britt at heart, but at least report the news and not just your opinion. I'm sure that once trump wins in the next round itll still be the same retort for another 4 years till they can start over with a new name.	" DURRR! ORANGE MAN BAD!
"	moneypennycharley
86	5 November 2019	5	tt3530232	"When I started watching this show I thought it was brilliant, enlightening and refreshing. He talked about subjects in a highly informative manner, and took a humoristic stance in the absurdity of issues that had not been resolved.John Oliver's show has since changed a lot and have become a left-wing proganda program. He always uses the same formular of bashing his political adversaries and glorifying his ally's. This show has completely lost its way.In many ways he follows the common news media propaganda formular first made by the Nazis. He talks about all the bad things his enemies have done and highlights all the good things his ally's have said or done. This also meaning that when his ally's do something terrible, he won't be telling about it and when his opponents does something great, he won't be telling about it.
All John Oliver is missing from the formular is creating an ""US"" and a ""THEM"".All of that said I still think he shines through once a while with a good and informative presentation of absurd issues."	" An informative political satire show that turned into a left-wing propaganda show
"	sebastian-wallin-pederse
